^C:\USERS\100458273\DOCUMENTS\REPOS\TICTACTOEMINMAX\TICTACTOEMINMAX\TICTACTOEBOARD.CPP
/c /ZI /JMC /nologo /W3 /WX- /diagnostics:classic /sdl /Od /Oy- /D WIN32 /D _DEBUG /D _CONSOLE /D _UNICODE /D UNICODE /Gm- /EHsc /RTC1 /MDd /GS /fp:precise /permissive- /Zc:wchar_t /Zc:forScope /Zc:inline /Fo"DEBUG\\" /Fd"DEBUG\VC141.PDB" /Gd /TP /analyze- /FC C:\USERS\100458273\DOCUMENTS\REPOS\TICTACTOEMINMAX\TICTACTOEMINMAX\TICTACTOEBOARD.CPP
^C:\USERS\100458273\DOCUMENTS\REPOS\TICTACTOEMINMAX\TICTACTOEMINMAX\MAIN.CPP
/c /ZI /JMC /nologo /W3 /WX- /diagnostics:classic /sdl /Od /Oy- /D WIN32 /D _DEBUG /D _CONSOLE /D _UNICODE /D UNICODE /Gm- /EHsc /RTC1 /MDd /GS /fp:precise /permissive- /Zc:wchar_t /Zc:forScope /Zc:inline /Fo"DEBUG\\" /Fd"DEBUG\VC141.PDB" /Gd /TP /analyze- /FC C:\USERS\100458273\DOCUMENTS\REPOS\TICTACTOEMINMAX\TICTACTOEMINMAX\MAIN.CPP
^C:\USERS\100458273\DOCUMENTS\REPOS\TICTACTOEMINMAX\TICTACTOEMINMAX\MINMAXTREE.CPP
/c /ZI /JMC /nologo /W3 /WX- /diagnostics:classic /sdl /Od /Oy- /D WIN32 /D _DEBUG /D _CONSOLE /D _UNICODE /D UNICODE /Gm- /EHsc /RTC1 /MDd /GS /fp:precise /permissive- /Zc:wchar_t /Zc:forScope /Zc:inline /Fo"DEBUG\\" /Fd"DEBUG\VC141.PDB" /Gd /TP /analyze- /FC C:\USERS\100458273\DOCUMENTS\REPOS\TICTACTOEMINMAX\TICTACTOEMINMAX\MINMAXTREE.CPP
