^C:\USERS\100458273\DOCUMENTS\REPOS\TICTACTOEMINMAX\TICTACTOEMINMAX\MINMAXTREE.CPP|C:\USERS\100458273\DOCUMENTS\REPOS\TICTACTOEMINMAX\TICTACTOEMINMAX\TICTACTOEBOARD.CPP
C:\USERS\100458273\DOCUMENTS\REPOS\TICTACTOEMINMAX\TICTACTOEMINMAX\DEBUG\VC141.PDB
C:\USERS\100458273\DOCUMENTS\REPOS\TICTACTOEMINMAX\TICTACTOEMINMAX\DEBUG\VC141.IDB
C:\USERS\100458273\DOCUMENTS\REPOS\TICTACTOEMINMAX\TICTACTOEMINMAX\DEBUG\TICTACTOEBOARD.OBJ
^C:\USERS\100458273\DOCUMENTS\REPOS\TICTACTOEMINMAX\TICTACTOEMINMAX\MAIN.CPP|C:\USERS\100458273\DOCUMENTS\REPOS\TICTACTOEMINMAX\TICTACTOEMINMAX\TICTACTOEBOARD.CPP
C:\USERS\100458273\DOCUMENTS\REPOS\TICTACTOEMINMAX\TICTACTOEMINMAX\DEBUG\VC141.PDB
C:\USERS\100458273\DOCUMENTS\REPOS\TICTACTOEMINMAX\TICTACTOEMINMAX\DEBUG\VC141.IDB
C:\USERS\100458273\DOCUMENTS\REPOS\TICTACTOEMINMAX\TICTACTOEMINMAX\DEBUG\MAIN.OBJ
C:\USERS\100458273\DOCUMENTS\REPOS\TICTACTOEMINMAX\TICTACTOEMINMAX\DEBUG\TICTACTOEBOARD.OBJ
^C:\USERS\100458273\DOCUMENTS\REPOS\TICTACTOEMINMAX\TICTACTOEMINMAX\MAIN.CPP|C:\USERS\100458273\DOCUMENTS\REPOS\TICTACTOEMINMAX\TICTACTOEMINMAX\MINMAXTREE.CPP
C:\USERS\100458273\DOCUMENTS\REPOS\TICTACTOEMINMAX\TICTACTOEMINMAX\DEBUG\VC141.PDB
C:\USERS\100458273\DOCUMENTS\REPOS\TICTACTOEMINMAX\TICTACTOEMINMAX\DEBUG\VC141.IDB
C:\USERS\100458273\DOCUMENTS\REPOS\TICTACTOEMINMAX\TICTACTOEMINMAX\DEBUG\MAIN.OBJ
C:\USERS\100458273\DOCUMENTS\REPOS\TICTACTOEMINMAX\TICTACTOEMINMAX\DEBUG\MINMAXTREE.OBJ
^C:\USERS\100458273\DOCUMENTS\REPOS\TICTACTOEMINMAX\TICTACTOEMINMAX\MAIN.CPP|C:\USERS\100458273\DOCUMENTS\REPOS\TICTACTOEMINMAX\TICTACTOEMINMAX\MINMAXTREE.CPP|C:\USERS\100458273\DOCUMENTS\REPOS\TICTACTOEMINMAX\TICTACTOEMINMAX\TICTACTOEBOARD.CPP
C:\USERS\100458273\DOCUMENTS\REPOS\TICTACTOEMINMAX\TICTACTOEMINMAX\DEBUG\VC141.PDB
C:\USERS\100458273\DOCUMENTS\REPOS\TICTACTOEMINMAX\TICTACTOEMINMAX\DEBUG\VC141.IDB
C:\USERS\100458273\DOCUMENTS\REPOS\TICTACTOEMINMAX\TICTACTOEMINMAX\DEBUG\TICTACTOEBOARD.OBJ
C:\USERS\100458273\DOCUMENTS\REPOS\TICTACTOEMINMAX\TICTACTOEMINMAX\DEBUG\MINMAXTREE.OBJ
C:\USERS\100458273\DOCUMENTS\REPOS\TICTACTOEMINMAX\TICTACTOEMINMAX\DEBUG\MAIN.OBJ
^C:\USERS\100458273\DOCUMENTS\REPOS\TICTACTOEMINMAX\TICTACTOEMINMAX\TICTACTOEBOARD.CPP
C:\USERS\100458273\DOCUMENTS\REPOS\TICTACTOEMINMAX\TICTACTOEMINMAX\DEBUG\VC141.PDB
^C:\USERS\100458273\DOCUMENTS\REPOS\TICTACTOEMINMAX\TICTACTOEMINMAX\MAIN.CPP
C:\USERS\100458273\DOCUMENTS\REPOS\TICTACTOEMINMAX\TICTACTOEMINMAX\DEBUG\VC141.PDB
C:\USERS\100458273\DOCUMENTS\REPOS\TICTACTOEMINMAX\TICTACTOEMINMAX\DEBUG\VC141.IDB
C:\USERS\100458273\DOCUMENTS\REPOS\TICTACTOEMINMAX\TICTACTOEMINMAX\DEBUG\MAIN.OBJ
^C:\USERS\100458273\DOCUMENTS\REPOS\TICTACTOEMINMAX\TICTACTOEMINMAX\MINMAXTREE.CPP
C:\USERS\100458273\DOCUMENTS\REPOS\TICTACTOEMINMAX\TICTACTOEMINMAX\DEBUG\VC141.PDB
C:\USERS\100458273\DOCUMENTS\REPOS\TICTACTOEMINMAX\TICTACTOEMINMAX\DEBUG\VC141.IDB
C:\USERS\100458273\DOCUMENTS\REPOS\TICTACTOEMINMAX\TICTACTOEMINMAX\DEBUG\MINMAXTREE.OBJ
